<svg width="24" height="24" viewBox="0 0 24 24" fill="none" xmlns="http://www.w3.org/2000/svg">
<g opacity="0.7">
<path d="M6.66 5.46C6.89734 5.46 7.12935 5.53038 7.32668 5.66224C7.52402 5.79409 7.67783 5.98151 7.76866 6.20078C7.85948 6.42005 7.88324 6.66133 7.83694 6.89411C7.79064 7.12689 7.67635 7.34071 7.50853 7.50853C7.3407 7.67635 7.12689 7.79064 6.89411 7.83694C6.66133 7.88324 6.42005 7.85948 6.20078 7.76866C5.98151 7.67783 5.79409 7.52402 5.66224 7.32668C5.53038 7.12935 5.46 6.89734 5.46 6.66C5.46 6.34174 5.58643 6.03652 5.81147 5.81147C6.03652 5.58643 6.34174 5.46 6.66 5.46ZM2.06 7.88C2.07945 7.0503 2.23484 6.2294 2.52 5.45C2.77427 4.78313 3.17002 4.17928 3.68 3.68C4.17518 3.16743 4.78044 2.77418 5.45 2.53C6.22734 2.23616 7.04915 2.07721 7.88 2.06C8.94 2 9.28 2 12 2C14.72 2 15.06 2 16.12 2.06C16.9508 2.07721 17.7727 2.23616 18.55 2.53C19.2183 2.77665 19.8231 3.16956 20.32 3.68C20.8326 4.17518 21.2258 4.78044 21.47 5.45C21.7638 6.22734 21.9228 7.04915 21.94 7.88C22 8.94 22 9.28 22 12C22 14.72 22 15.06 21.94 16.12C21.9228 16.9508 21.7638 17.7727 21.47 18.55C21.2258 19.2196 20.8326 19.8248 20.32 20.32C19.8231 20.8304 19.2183 21.2234 18.55 21.47C17.7727 21.7638 16.9508 21.9228 16.12 21.94C15.06 22 14.72 22 12 22C9.28 22 8.94 22 7.88 21.94C7.04915 21.9228 6.22734 21.7638 5.45 21.47C4.78044 21.2258 4.17518 20.8326 3.68 20.32C3.16776 19.8226 2.77166 19.2182 2.52 18.55C2.23484 17.7706 2.07945 16.9497 2.06 16.12C2.06 15.06 2 14.72 2 12C2 9.28 2 8.94 2.06 7.88ZM3.86 16C3.86728 16.6348 3.98225 17.2637 4.2 17.86C4.35967 18.2952 4.61612 18.6884 4.95 19.01C5.27435 19.3405 5.66677 19.5964 6.1 19.76C6.6963 19.9778 7.32523 20.0927 7.96 20.1C8.96 20.15 9.33 20.16 11.96 20.16C14.59 20.16 14.96 20.16 15.96 20.1C16.6191 20.1123 17.2754 20.0109 17.9 19.8C18.3142 19.6281 18.6886 19.3728 19 19.05C19.3319 18.7287 19.5852 18.3352 19.74 17.9C19.9841 17.2952 20.1196 16.6519 20.14 16C20.14 15 20.2 14.63 20.2 12C20.2 9.37 20.2 9 20.14 8C20.1355 7.35106 20.017 6.70795 19.79 6.1C19.614 5.67791 19.3437 5.30166 19 5C18.6962 4.65617 18.3207 4.3831 17.9 4.2C17.2904 3.98004 16.648 3.86508 16 3.86C15 3.86 14.63 3.8 12 3.8C9.37 3.8 9 3.8 8 3.86C7.36523 3.86728 6.7363 3.98225 6.14 4.2C5.68557 4.36865 5.27771 4.64285 4.95 5C4.6223 5.30718 4.36624 5.68273 4.2 6.1C3.97775 6.70893 3.86271 7.35178 3.86 8C3.81 9 3.8 9.37 3.8 12C3.8 14.63 3.81 15 3.86 16ZM12 6.87C13.0142 6.87198 14.005 7.17453 14.8473 7.73942C15.6897 8.30431 16.3456 9.1062 16.7324 10.0438C17.1191 10.9813 17.2193 12.0125 17.0202 13.0069C16.8211 14.0014 16.3318 14.9145 15.6139 15.631C14.8961 16.3474 13.982 16.835 12.9871 17.0321C11.9923 17.2293 10.9613 17.1271 10.0245 16.7385C9.08773 16.35 8.28712 15.6924 7.72387 14.849C7.16062 14.0056 6.86 13.0142 6.86 12C6.85868 11.3251 6.9908 10.6566 7.24876 10.033C7.50672 9.40931 7.88544 8.84281 8.36313 8.36605C8.84082 7.88929 9.40805 7.51168 10.0322 7.25493C10.6564 6.99818 11.3251 6.86736 12 6.87ZM12 15.33C12.6586 15.33 13.3024 15.1347 13.85 14.7688C14.3977 14.4029 14.8245 13.8828 15.0765 13.2743C15.3286 12.6659 15.3945 11.9963 15.266 11.3503C15.1375 10.7044 14.8204 10.111 14.3547 9.64533C13.889 9.17963 13.2956 8.86247 12.6497 8.73398C12.0037 8.6055 11.3341 8.67144 10.7257 8.92348C10.1172 9.17552 9.59711 9.60234 9.23121 10.15C8.8653 10.6976 8.67 11.3414 8.67 12C8.67 12.4373 8.75613 12.8703 8.92348 13.2743C9.09083 13.6784 9.33611 14.0454 9.64533 14.3547C9.95455 14.6639 10.3216 14.9092 10.7257 15.0765C11.1297 15.2439 11.5627 15.33 12 15.33Z" fill="white"/>
</g>
</svg>
