<svg width="224" height="147" viewBox="0 0 224 147" fill="none" xmlns="http://www.w3.org/2000/svg">
<g clip-path="url(#clip0_77_1456)">
<path d="M46.5488 135.694H55.63V136.912H51.7952V147H50.3836V136.912H46.5488V135.694Z" fill="white"/>
<path d="M74.5717 147H67.1182V135.694H74.3978V136.912H68.5299V140.619H73.4233V141.8H68.5299V145.797H74.5717V147Z" fill="white"/>
<path d="M93.3771 145.714V147H86.0605V135.694H87.4722V145.714H93.3771Z" fill="white"/>
<path d="M112.35 147H104.892V135.694H112.198V136.912H106.309V140.619H111.202V141.8H106.309V145.797H112.35V147Z" fill="white"/>
<path d="M125.303 141.349C125.225 142.536 125.601 143.708 126.357 144.636C126.7 145.018 127.124 145.321 127.599 145.525C128.074 145.729 128.588 145.829 129.106 145.818C129.747 145.839 130.381 145.686 130.939 145.375C131.497 145.064 131.956 144.607 132.267 144.055L133.32 144.771C132.889 145.492 132.263 146.082 131.512 146.476C130.76 146.869 129.913 147.051 129.064 147C128.364 147.029 127.666 146.911 127.016 146.653C126.366 146.394 125.781 146.002 125.298 145.502C124.305 144.372 123.797 142.908 123.881 141.417C123.804 139.908 124.31 138.426 125.298 137.27C125.769 136.755 126.349 136.35 126.997 136.081C127.645 135.812 128.346 135.687 129.048 135.714C129.885 135.672 130.718 135.853 131.46 136.237C132.201 136.621 132.824 137.194 133.262 137.897L132.209 138.643C131.907 138.163 131.497 137.758 131.009 137.461C130.522 137.163 129.972 136.98 129.4 136.927C128.829 136.874 128.254 136.951 127.718 137.154C127.183 137.356 126.702 137.678 126.315 138.094C125.585 139.021 125.225 140.179 125.303 141.349Z" fill="white"/>
<path d="M150.012 147C149.309 147.031 148.608 146.91 147.957 146.646C147.306 146.382 146.722 145.981 146.246 145.471C145.337 144.282 144.846 142.835 144.846 141.347C144.846 139.859 145.337 138.412 146.246 137.223C147.247 136.244 148.601 135.694 150.012 135.694C151.424 135.694 152.778 136.244 153.779 137.223C154.701 138.406 155.201 139.856 155.201 141.347C155.201 142.838 154.701 144.288 153.779 145.471C153.303 145.981 152.719 146.383 152.068 146.647C151.417 146.911 150.716 147.032 150.012 147ZM147.263 144.631C147.609 145.011 148.032 145.315 148.505 145.523C148.979 145.731 149.491 145.839 150.01 145.839C150.528 145.839 151.041 145.731 151.514 145.523C151.988 145.315 152.411 145.011 152.757 144.631C153.431 143.676 153.792 142.541 153.792 141.378C153.792 140.215 153.431 139.08 152.757 138.125C152.42 137.729 151.994 137.414 151.514 137.204C151.034 136.995 150.511 136.897 149.986 136.917C149.464 136.898 148.944 136.997 148.467 137.207C147.99 137.418 147.569 137.734 147.236 138.13C146.495 139.049 146.12 140.203 146.183 141.375C146.133 142.553 146.516 143.709 147.263 144.631Z" fill="white"/>
<path d="M172.105 144.584H172.036L168.059 139.188V147H166.685V135.694H166.79L172.057 142.661L177.357 135.694H177.441V147H176.087V139.188L172.105 144.584Z" fill="white"/>
<path d="M28.7131 56.5669H40.2015V113.071H0V56.5669H11.4884V101.786H28.7131V56.5669Z" fill="white"/>
<path d="M124.45 39.4963V79.1739H132.104V113.087H91.9023V39.4756L124.45 39.4963ZM112.962 50.9009H103.391V79.1843H112.962V50.9009ZM103.391 101.796H120.626V90.48H103.391V101.796Z" fill="white"/>
<path d="M212.512 33.96H224V113.087H212.512V84.8296L195.287 73.5235V113.087H183.799V33.96H195.287V62.2071L212.512 73.508V33.96Z" fill="white"/>
<path d="M174.76 84.3057H141.153V84.6219H174.76V84.3057Z" fill="#D5D5E0"/>
<path d="M174.76 83.9585H141.153V84.3006H174.76V83.9585Z" fill="#D5D4DF"/>
<path d="M174.76 83.6162H141.153V83.9584H174.76V83.6162Z" fill="#D4D4DF"/>
<path d="M174.76 83.269H141.153V83.6112H174.76V83.269Z" fill="#D3D3DE"/>
<path d="M174.76 82.9268H141.153V83.2689H174.76V82.9268Z" fill="#D2D2DE"/>
<path d="M174.76 82.5796H141.153V82.9217H174.76V82.5796Z" fill="#D2D1DD"/>
<path d="M174.76 82.2373H141.153V82.5794H174.76V82.2373Z" fill="#D1D1DC"/>
<path d="M174.76 81.8901H141.153V82.2323H174.76V81.8901Z" fill="#D0D0DC"/>
<path d="M174.76 81.5479H141.153V81.89H174.76V81.5479Z" fill="#D0CFDB"/>
<path d="M174.76 81.2007H141.153V81.5428H174.76V81.2007Z" fill="#CFCEDB"/>
<path d="M174.76 80.8584H141.153V81.2005H174.76V80.8584Z" fill="#CECEDA"/>
<path d="M174.76 80.5112H141.153V80.8533H174.76V80.5112Z" fill="#CDCDDA"/>
<path d="M174.76 80.1689H141.153V80.5111H174.76V80.1689Z" fill="#CDCCD9"/>
<path d="M174.76 79.8218H141.153V80.1639H174.76V79.8218Z" fill="#CCCBD8"/>
<path d="M174.76 79.4795H141.153V79.8216H174.76V79.4795Z" fill="#CBCAD8"/>
<path d="M174.76 79.1323H141.153V79.4745H174.76V79.1323Z" fill="#CAC9D7"/>
<path d="M174.76 78.79H141.153V79.1321H174.76V78.79Z" fill="#CAC9D7"/>
<path d="M174.76 78.4482H141.153V78.7904H174.76V78.4482Z" fill="#C9C8D6"/>
<path d="M174.76 78.1006H141.153V78.4428H174.76V78.1006Z" fill="#C8C7D5"/>
<path d="M174.76 77.7588H141.153V78.1009H174.76V77.7588Z" fill="#C7C6D5"/>
<path d="M174.76 77.4111H141.153V77.7533H174.76V77.4111Z" fill="#C7C5D4"/>
<path d="M174.76 77.0693H141.153V77.4115H174.76V77.0693Z" fill="#C6C4D3"/>
<path d="M174.76 76.7217H141.153V77.0638H174.76V76.7217Z" fill="#C5C4D3"/>
<path d="M174.76 76.3799H141.153V76.722H174.76V76.3799Z" fill="#C4C3D2"/>
<path d="M174.76 76.0322H141.153V76.3744H174.76V76.0322Z" fill="#C3C2D2"/>
<path d="M174.76 75.6904H141.153V76.0325H174.76V75.6904Z" fill="#C3C1D1"/>
<path d="M174.76 75.3428H141.153V75.6849H174.76V75.3428Z" fill="#C2C0D0"/>
<path d="M174.76 75.0005H141.153V75.3427H174.76V75.0005Z" fill="#C1BFD0"/>
<path d="M174.76 74.6533H141.153V74.9955H174.76V74.6533Z" fill="#C0BECF"/>
<path d="M174.76 74.311H141.153V74.6532H174.76V74.311Z" fill="#BFBDCE"/>
<path d="M174.76 73.9639H141.153V74.306H174.76V73.9639Z" fill="#BFBDCE"/>
<path d="M174.76 73.6216H141.153V73.9637H174.76V73.6216Z" fill="#BEBCCD"/>
<path d="M174.76 73.2744H141.153V73.6166H174.76V73.2744Z" fill="#BDBBCC"/>
<path d="M174.76 72.9321H141.153V73.2743H174.76V72.9321Z" fill="#BCBACC"/>
<path d="M174.76 72.5903H141.153V72.9325H174.76V72.5903Z" fill="#BBB9CB"/>
<path d="M174.76 72.2427H141.153V72.5848H174.76V72.2427Z" fill="#BAB8CA"/>
<path d="M174.76 71.9009H141.153V72.243H174.76V71.9009Z" fill="#B9B7CA"/>
<path d="M174.76 71.5532H141.153V71.8954H174.76V71.5532Z" fill="#B9B6C9"/>
<path d="M174.76 71.2114H141.153V71.5536H174.76V71.2114Z" fill="#B8B5C8"/>
<path d="M174.76 70.8638H141.153V71.2059H174.76V70.8638Z" fill="#B7B4C8"/>
<path d="M174.76 70.522H141.153V70.8641H174.76V70.522Z" fill="#B6B3C7"/>
<path d="M174.76 70.1743H141.153V70.5165H174.76V70.1743Z" fill="#B5B2C6"/>
<path d="M174.76 69.8325H141.153V70.1747H174.76V69.8325Z" fill="#B4B1C6"/>
<path d="M174.76 69.4849H141.153V69.827H174.76V69.4849Z" fill="#B3B1C5"/>
<path d="M174.76 69.1431H141.153V69.4852H174.76V69.1431Z" fill="#B3B0C4"/>
<path d="M174.76 68.7954H141.153V69.1376H174.76V68.7954Z" fill="#B2AFC4"/>
<path d="M174.76 68.4536H141.153V68.7957H174.76V68.4536Z" fill="#B1AEC3"/>
<path d="M174.76 68.106H141.153V68.4481H174.76V68.106Z" fill="#B0ADC2"/>
<path d="M174.76 67.7642H141.153V68.1063H174.76V67.7642Z" fill="#AFACC2"/>
<path d="M174.76 67.4165H141.153V67.7586H174.76V67.4165Z" fill="#AEABC1"/>
<path d="M174.76 67.0747H141.153V67.4168H174.76V67.0747Z" fill="#ADAAC0"/>
<path d="M174.76 66.7324H141.153V67.0746H174.76V66.7324Z" fill="#ACA9BF"/>
<path d="M174.76 66.3853H141.153V66.7274H174.76V66.3853Z" fill="#ABA8BF"/>
<path d="M174.76 66.043H141.153V66.3851H174.76V66.043Z" fill="#ABA7BE"/>
<path d="M174.76 65.6958H141.153V66.0379H174.76V65.6958Z" fill="#AAA6BD"/>
<path d="M174.76 65.3535H141.153V65.6957H174.76V65.3535Z" fill="#A9A5BD"/>
<path d="M174.76 65.0063H141.153V65.3485H174.76V65.0063Z" fill="#A8A4BC"/>
<path d="M174.76 64.6641H141.153V65.0062H174.76V64.6641Z" fill="#A7A3BB"/>
<path d="M174.76 64.3169H141.153V64.659H174.76V64.3169Z" fill="#A6A2BA"/>
<path d="M174.76 63.9746H141.153V64.3167H174.76V63.9746Z" fill="#A5A1BA"/>
<path d="M174.76 63.6274H141.153V63.9696H174.76V63.6274Z" fill="#A4A0B9"/>
<path d="M174.76 63.2852H141.153V63.6273H174.76V63.2852Z" fill="#A39FB8"/>
<path d="M174.76 62.938H141.153V63.2801H174.76V62.938Z" fill="#A29EB7"/>
<path d="M174.76 62.5957H141.153V62.9378H174.76V62.5957Z" fill="#A19DB7"/>
<path d="M174.76 62.2485H141.153V62.5907H174.76V62.2485Z" fill="#A09CB6"/>
<path d="M174.76 61.9062H141.153V62.2484H174.76V61.9062Z" fill="#A09BB5"/>
<path d="M174.76 61.5591H141.153V61.9012H174.76V61.5591Z" fill="#9F9AB4"/>
<path d="M174.76 61.2168H141.153V61.5589H174.76V61.2168Z" fill="#9E99B4"/>
<path d="M174.76 60.8745H141.153V61.2167H174.76V60.8745Z" fill="#9D98B3"/>
<path d="M174.76 60.5273H141.153V60.8695H174.76V60.5273Z" fill="#9C97B2"/>
<path d="M174.76 60.1851H141.153V60.5272H174.76V60.1851Z" fill="#9B96B2"/>
<path d="M174.76 59.8379H141.153V60.18H174.76V59.8379Z" fill="#9A95B1"/>
<path d="M174.76 59.4956H141.153V59.8377H174.76V59.4956Z" fill="#9994B0"/>
<path d="M174.76 59.1484H141.153V59.4906H174.76V59.1484Z" fill="#9893AF"/>
<path d="M174.76 58.8062H141.153V59.1483H174.76V58.8062Z" fill="#9792AE"/>
<path d="M174.76 58.459H141.153V58.8011H174.76V58.459Z" fill="#9691AE"/>
<path d="M174.76 58.1167H141.153V58.4588H174.76V58.1167Z" fill="#958FAD"/>
<path d="M174.76 57.7695H141.153V58.1117H174.76V57.7695Z" fill="#948EAC"/>
<path d="M174.76 57.4272H141.153V57.7694H174.76V57.4272Z" fill="#938DAB"/>
<path d="M174.76 57.0801H141.153V57.4222H174.76V57.0801Z" fill="#928CAB"/>
<path d="M174.76 56.7378H141.153V57.0799H174.76V56.7378Z" fill="#918BAA"/>
<path d="M174.76 56.3906H141.153V56.7328H174.76V56.3906Z" fill="#908AA9"/>
<path d="M174.76 56.0483H141.153V56.3905H174.76V56.0483Z" fill="#8F89A8"/>
<path d="M174.76 55.7012H141.153V56.0433H174.76V55.7012Z" fill="#8E88A8"/>
<path d="M174.76 55.3589H141.153V55.701H174.76V55.3589Z" fill="#8D87A7"/>
<path d="M174.76 55.0117H141.153V55.3539H174.76V55.0117Z" fill="#8C86A6"/>
<path d="M174.76 54.6694H141.153V55.0116H174.76V54.6694Z" fill="#8B85A5"/>
<path d="M174.76 54.3271H141.153V54.6693H174.76V54.3271Z" fill="#8A84A4"/>
<path d="M174.76 53.98H141.153V54.3221H174.76V53.98Z" fill="#8983A4"/>
<path d="M174.76 53.6377H141.153V53.9798H174.76V53.6377Z" fill="#8882A3"/>
<path d="M174.76 53.2905H141.153V53.6327H174.76V53.2905Z" fill="#8781A2"/>
<path d="M174.76 52.9482H141.153V53.2904H174.76V52.9482Z" fill="#867FA1"/>
<path d="M174.76 52.6011H141.153V52.9432H174.76V52.6011Z" fill="#857EA0"/>
<path d="M174.76 52.2588H141.153V52.6009H174.76V52.2588Z" fill="#847DA0"/>
<path d="M174.76 51.9116H141.153V52.2538H174.76V51.9116Z" fill="#837C9F"/>
<path d="M174.76 51.5693H141.153V51.9115H174.76V51.5693Z" fill="#827B9E"/>
<path d="M174.76 51.2222H141.153V51.5643H174.76V51.2222Z" fill="#817A9D"/>
<path d="M174.76 50.8799H141.153V51.222H174.76V50.8799Z" fill="#80799D"/>
<path d="M174.76 50.5327H141.153V50.8749H174.76V50.5327Z" fill="#7F789C"/>
<path d="M174.76 50.1904H141.153V50.5326H174.76V50.1904Z" fill="#7E779B"/>
<path d="M174.76 49.8433H141.153V50.1854H174.76V49.8433Z" fill="#7D769A"/>
<path d="M174.76 49.501H141.153V49.8431H174.76V49.501Z" fill="#7C7499"/>
<path d="M174.76 49.1538H141.153V49.4959H174.76V49.1538Z" fill="#7B7398"/>
<path d="M174.76 48.8115H141.153V49.1537H174.76V48.8115Z" fill="#7A7298"/>
<path d="M174.76 48.4697H141.153V48.8119H174.76V48.4697Z" fill="#797197"/>
<path d="M174.76 48.1221H141.153V48.4642H174.76V48.1221Z" fill="#787096"/>
<path d="M174.76 47.7803H141.153V48.1224H174.76V47.7803Z" fill="#776F95"/>
<path d="M174.76 47.4326H141.153V47.7748H174.76V47.4326Z" fill="#766E94"/>
<path d="M174.76 47.0908H141.153V47.433H174.76V47.0908Z" fill="#756D94"/>
<path d="M174.76 46.7432H141.153V47.0853H174.76V46.7432Z" fill="#746C93"/>
<path d="M174.76 46.4009H141.153V46.743H174.76V46.4009Z" fill="#736A92"/>
<path d="M174.76 46.0537H141.153V46.3959H174.76V46.0537Z" fill="#726991"/>
<path d="M174.76 45.7114H141.153V46.0536H174.76V45.7114Z" fill="#716890"/>
<path d="M174.76 45.3643H141.153V45.7064H174.76V45.3643Z" fill="#70678F"/>
<path d="M174.76 45.022H141.153V45.3641H174.76V45.022Z" fill="#6F668F"/>
<path d="M174.76 44.6748H141.153V45.0169H174.76V44.6748Z" fill="#6E658E"/>
<path d="M174.76 44.3325H141.153V44.6747H174.76V44.3325Z" fill="#6D648D"/>
<path d="M174.76 43.9854H141.153V44.3275H174.76V43.9854Z" fill="#6C628C"/>
<path d="M174.76 43.6431H141.153V43.9852H174.76V43.6431Z" fill="#6A618B"/>
<path d="M174.76 43.2959H141.153V43.638H174.76V43.2959Z" fill="#69608B"/>
<path d="M174.76 42.9536H141.153V43.2957H174.76V42.9536Z" fill="#685F8A"/>
<path d="M174.76 42.6118H141.153V42.954H174.76V42.6118Z" fill="#675E89"/>
<path d="M174.76 42.2642H141.153V42.6063H174.76V42.2642Z" fill="#665D88"/>
<path d="M174.76 41.9224H141.153V42.2645H174.76V41.9224Z" fill="#655C87"/>
<path d="M174.76 41.5747H141.153V41.9169H174.76V41.5747Z" fill="#645A86"/>
<path d="M174.76 41.2329H141.153V41.575H174.76V41.2329Z" fill="#635985"/>
<path d="M174.76 40.8853H141.153V41.2274H174.76V40.8853Z" fill="#625885"/>
<path d="M174.76 40.5435H141.153V40.8856H174.76V40.5435Z" fill="#615784"/>
<path d="M174.76 40.1958H141.153V40.5379H174.76V40.1958Z" fill="#605683"/>
<path d="M174.76 39.854H141.153V40.1961H174.76V39.854Z" fill="#5F5582"/>
<path d="M174.76 39.5063H141.153V39.8485H174.76V39.5063Z" fill="#5E5381"/>
<path d="M174.76 39.1646H141.153V39.5067H174.76V39.1646Z" fill="#5D5280"/>
<path d="M174.76 38.8169H141.153V39.159H174.76V38.8169Z" fill="#5C5180"/>
<path d="M174.76 38.4751H141.153V38.8172H174.76V38.4751Z" fill="#5A507F"/>
<path d="M174.76 38.1274H141.153V38.4696H174.76V38.1274Z" fill="#594F7E"/>
<path d="M174.76 37.7856H141.153V38.1278H174.76V37.7856Z" fill="#584E7D"/>
<path d="M174.76 37.438H141.153V37.7801H174.76V37.438Z" fill="#574C7C"/>
<path d="M174.76 37.0962H141.153V37.4383H174.76V37.0962Z" fill="#564B7B"/>
<path d="M174.76 36.7539H141.153V37.096H174.76V36.7539Z" fill="#554A7A"/>
<path d="M174.76 36.4067H141.153V36.7489H174.76V36.4067Z" fill="#54497A"/>
<path d="M174.76 36.0645H141.153V36.4066H174.76V36.0645Z" fill="#534879"/>
<path d="M174.76 35.7173H141.153V36.0594H174.76V35.7173Z" fill="#524678"/>
<path d="M174.76 35.375H141.153V35.7171H174.76V35.375Z" fill="#514577"/>
<path d="M174.76 35.0278H141.153V35.37H174.76V35.0278Z" fill="#504476"/>
<path d="M174.76 34.6855H141.153V35.0277H174.76V34.6855Z" fill="#4E4375"/>
<path d="M174.76 34.3384H141.153V34.6805H174.76V34.3384Z" fill="#4D4274"/>
<path d="M174.76 33.9961H141.153V34.3382H174.76V33.9961Z" fill="#4C4073"/>
<path d="M174.76 33.6489H141.153V33.9911H174.76V33.6489Z" fill="#4B3F73"/>
<path d="M174.76 33.3066H141.153V33.6488H174.76V33.3066Z" fill="#4A3E72"/>
<path d="M174.76 32.9595H141.153V33.3016H174.76V32.9595Z" fill="#493D71"/>
<path d="M174.76 32.6172H141.153V32.9593H174.76V32.6172Z" fill="#483C70"/>
<path d="M174.76 32.27H141.153V32.6122H174.76V32.27Z" fill="#473A6F"/>
<path d="M174.76 31.9277H141.153V32.2699H174.76V31.9277Z" fill="#46396E"/>
<path d="M174.76 31.5806H141.153V31.9227H174.76V31.5806Z" fill="#44386D"/>
<path d="M174.76 31.2383H141.153V31.5804H174.76V31.2383Z" fill="#43376C"/>
<path d="M174.76 30.8911H141.153V31.2333H174.76V30.8911Z" fill="#42366C"/>
<path d="M174.76 30.5488H141.153V30.891H174.76V30.5488Z" fill="#41346B"/>
<path d="M174.76 30.2065H141.153V30.5487H174.76V30.2065Z" fill="#40336A"/>
<path d="M174.76 29.8594H141.153V30.2015H174.76V29.8594Z" fill="#3F3269"/>
<path d="M174.76 29.5171H141.153V29.8592H174.76V29.5171Z" fill="#3E3168"/>
<path d="M174.76 29.1699H141.153V29.5121H174.76V29.1699Z" fill="#3D3067"/>
<path d="M174.76 28.8276H141.153V29.1698H174.76V28.8276Z" fill="#3C2E66"/>
<path d="M174.76 28.4805H141.153V28.8226H174.76V28.4805Z" fill="#3A2D65"/>
<path d="M174.76 28.1382H141.153V28.4803H174.76V28.1382Z" fill="#392C64"/>
<path d="M174.76 27.791H141.153V28.1331H174.76V27.791Z" fill="#382B64"/>
<path d="M174.76 27.4487H141.153V27.7909H174.76V27.4487Z" fill="#372963"/>
<path d="M174.76 27.1016H141.153V27.4437H174.76V27.1016Z" fill="#362862"/>
<path d="M174.76 26.7593H141.153V27.1014H174.76V26.7593Z" fill="#352761"/>
<path d="M174.76 26.4121H141.153V26.7542H174.76V26.4121Z" fill="#342660"/>
<path d="M174.76 26.0698H141.153V26.412H174.76V26.0698Z" fill="#32245F"/>
<path d="M174.76 25.7227H141.153V26.0648H174.76V25.7227Z" fill="#31235E"/>
<path d="M174.76 25.3804H141.153V25.7225H174.76V25.3804Z" fill="#30225D"/>
<path d="M174.76 25.0332H141.153V25.3753H174.76V25.0332Z" fill="#2F215C"/>
<path d="M174.76 24.6909H141.153V25.0331H174.76V24.6909Z" fill="#2E1F5B"/>
<path d="M174.76 24.3486H141.153V24.6908H174.76V24.3486Z" fill="#2D1E5B"/>
<path d="M174.76 24.0015H141.153V24.3436H174.76V24.0015Z" fill="#2C1D5A"/>
<path d="M174.76 23.6592H141.153V24.0013H174.76V23.6592Z" fill="#2A1C59"/>
<path d="M174.76 23.312H141.153V23.6542H174.76V23.312Z" fill="#291B58"/>
<path d="M174.76 22.9697H141.153V23.3119H174.76V22.9697Z" fill="#281957"/>
<path d="M174.76 22.6226H141.153V22.9647H174.76V22.6226Z" fill="white"/>
<path d="M174.76 22.4463H141.153V22.6225H174.76V22.4463Z" fill="white"/>
<path d="M167.527 76.3486H159.868V85.7678H167.527V76.3486Z" fill="#E1E2E9"/>
<path d="M156.039 54.4932H148.38V63.9123H156.039V54.4932Z" fill="#E1E2E9"/>
<path d="M156.039 21.7153H148.38V31.1345H156.039V21.7153Z" fill="#E1E2E9"/>
<path d="M137.855 11.3525V113.087H149.339V96.1301H166.569V113.087H178.041V11.3525H137.855ZM155.08 73.9015H149.339V66.3538H155.08V73.9015ZM155.08 62.9739H149.339V55.4365H155.08V62.9739ZM155.08 52.0462H149.339V44.5088H155.08V52.0462ZM155.08 30.1909H149.339V22.6535H155.08V30.1909ZM166.569 84.8292H160.827V77.2918H166.569V84.8292ZM166.569 73.9015H160.827V66.3538H166.569V73.9015ZM166.569 41.1185H160.827V33.5811H166.569V41.1185ZM166.569 30.1909H160.827V22.6535H166.569V30.1909Z" fill="white"/>
<path d="M82.8624 90.0288H49.2559V90.4331H82.8624V90.0288Z" fill="#D5D5E0"/>
<path d="M82.8624 89.5884H49.2559V90.029H82.8624V89.5884Z" fill="#D5D4DF"/>
<path d="M82.8624 89.1528H49.2559V89.5935H82.8624V89.1528Z" fill="#D4D4DF"/>
<path d="M82.8624 88.7124H49.2559V89.153H82.8624V88.7124Z" fill="#D3D3DE"/>
<path d="M82.8624 88.2769H49.2559V88.7175H82.8624V88.2769Z" fill="#D2D2DE"/>
<path d="M82.8624 87.8359H49.2559V88.2766H82.8624V87.8359Z" fill="#D2D1DD"/>
<path d="M82.8624 87.3955H49.2559V87.8361H82.8624V87.3955Z" fill="#D1D1DC"/>
<path d="M82.8624 86.96H49.2559V87.4006H82.8624V86.96Z" fill="#D0D0DC"/>
<path d="M82.8624 86.5195H49.2559V86.9602H82.8624V86.5195Z" fill="#D0CFDB"/>
<path d="M82.8624 86.084H49.2559V86.5246H82.8624V86.084Z" fill="#CFCEDB"/>
<path d="M82.8624 85.6436H49.2559V86.0842H82.8624V85.6436Z" fill="#CECEDA"/>
<path d="M82.8624 85.2026H49.2559V85.6433H82.8624V85.2026Z" fill="#CDCDDA"/>
<path d="M82.8624 84.7671H49.2559V85.2077H82.8624V84.7671Z" fill="#CDCCD9"/>
<path d="M82.8624 84.3267H49.2559V84.7673H82.8624V84.3267Z" fill="#CCCBD8"/>
<path d="M82.8624 83.8911H49.2559V84.3317H82.8624V83.8911Z" fill="#CBCAD8"/>
<path d="M82.8624 83.4507H49.2559V83.8913H82.8624V83.4507Z" fill="#CAC9D7"/>
<path d="M82.8624 83.0098H49.2559V83.4504H82.8624V83.0098Z" fill="#CAC9D7"/>
<path d="M82.8624 82.5747H49.2559V83.0154H82.8624V82.5747Z" fill="#C9C8D6"/>
<path d="M82.8624 82.1338H49.2559V82.5744H82.8624V82.1338Z" fill="#C8C7D5"/>
<path d="M82.8624 81.6982H49.2559V82.1389H82.8624V81.6982Z" fill="#C7C6D5"/>
<path d="M82.8624 81.2578H49.2559V81.6984H82.8624V81.2578Z" fill="#C7C5D4"/>
<path d="M82.8624 80.8169H49.2559V81.2575H82.8624V80.8169Z" fill="#C6C4D3"/>
<path d="M82.8624 80.3818H49.2559V80.8225H82.8624V80.3818Z" fill="#C5C4D3"/>
<path d="M82.8624 79.9409H49.2559V80.3815H82.8624V79.9409Z" fill="#C4C3D2"/>
<path d="M82.8624 79.5054H49.2559V79.946H82.8624V79.5054Z" fill="#C3C2D2"/>
<path d="M82.8624 79.0649H49.2559V79.5056H82.8624V79.0649Z" fill="#C3C1D1"/>
<path d="M82.8624 78.6245H49.2559V79.0652H82.8624V78.6245Z" fill="#C2C0D0"/>
<path d="M82.8624 78.189H49.2559V78.6296H82.8624V78.189Z" fill="#C1BFD0"/>
<path d="M82.8624 77.748H49.2559V78.1887H82.8624V77.748Z" fill="#C0BECF"/>
<path d="M82.8624 77.313H49.2559V77.7536H82.8624V77.313Z" fill="#BFBDCE"/>
<path d="M82.8624 76.8721H49.2559V77.3127H82.8624V76.8721Z" fill="#BFBDCE"/>
<path d="M82.8624 76.4316H49.2559V76.8723H82.8624V76.4316Z" fill="#BEBCCD"/>
<path d="M82.8624 75.9961H49.2559V76.4367H82.8624V75.9961Z" fill="#BDBBCC"/>
<path d="M82.8624 75.5557H49.2559V75.9963H82.8624V75.5557Z" fill="#BCBACC"/>
<path d="M82.8624 75.1201H49.2559V75.5607H82.8624V75.1201Z" fill="#BBB9CB"/>
<path d="M82.8624 74.6792H49.2559V75.1198H82.8624V74.6792Z" fill="#BAB8CA"/>
<path d="M82.8624 74.2388H49.2559V74.6794H82.8624V74.2388Z" fill="#B9B7CA"/>
<path d="M82.8624 73.8032H49.2559V74.2438H82.8624V73.8032Z" fill="#B9B6C9"/>
<path d="M82.8624 73.3628H49.2559V73.8035H82.8624V73.3628Z" fill="#B8B5C8"/>
<path d="M82.8624 72.9272H49.2559V73.3679H82.8624V72.9272Z" fill="#B7B4C8"/>
<path d="M82.8624 72.4868H49.2559V72.9275H82.8624V72.4868Z" fill="#B6B3C7"/>
<path d="M82.8624 72.0459H49.2559V72.4865H82.8624V72.0459Z" fill="#B5B2C6"/>
<path d="M82.8624 71.6104H49.2559V72.051H82.8624V71.6104Z" fill="#B4B1C6"/>
<path d="M82.8624 71.1699H49.2559V71.6106H82.8624V71.1699Z" fill="#B3B1C5"/>
<path d="M82.8624 70.7344H49.2559V71.175H82.8624V70.7344Z" fill="#B3B0C4"/>
<path d="M82.8624 70.2939H49.2559V70.7346H82.8624V70.2939Z" fill="#B2AFC4"/>
<path d="M82.8624 69.853H49.2559V70.2936H82.8624V69.853Z" fill="#B1AEC3"/>
<path d="M82.8624 69.418H49.2559V69.8586H82.8624V69.418Z" fill="#B0ADC2"/>
<path d="M82.8624 68.9771H49.2559V69.4177H82.8624V68.9771Z" fill="#AFACC2"/>
<path d="M82.8624 68.5415H49.2559V68.9821H82.8624V68.5415Z" fill="#AEABC1"/>
<path d="M82.8624 68.1011H49.2559V68.5417H82.8624V68.1011Z" fill="#ADAAC0"/>
<path d="M82.8624 67.6602H49.2559V68.1008H82.8624V67.6602Z" fill="#ACA9BF"/>
<path d="M82.8624 67.2251H49.2559V67.6658H82.8624V67.2251Z" fill="#ABA8BF"/>
<path d="M82.8624 66.7842H49.2559V67.2248H82.8624V66.7842Z" fill="#ABA7BE"/>
<path d="M82.8624 66.3486H49.2559V66.7893H82.8624V66.3486Z" fill="#AAA6BD"/>
<path d="M82.8624 65.9082H49.2559V66.3488H82.8624V65.9082Z" fill="#A9A5BD"/>
<path d="M82.8624 65.4678H49.2559V65.9084H82.8624V65.4678Z" fill="#A8A4BC"/>
<path d="M82.8624 65.0322H49.2559V65.4729H82.8624V65.0322Z" fill="#A7A3BB"/>
<path d="M82.8624 64.5913H49.2559V65.0319H82.8624V64.5913Z" fill="#A6A2BA"/>
<path d="M82.8624 64.1562H49.2559V64.5969H82.8624V64.1562Z" fill="#A5A1BA"/>
<path d="M82.8624 63.7153H49.2559V64.156H82.8624V63.7153Z" fill="#A4A0B9"/>
<path d="M82.8624 63.2749H49.2559V63.7155H82.8624V63.2749Z" fill="#A39FB8"/>
<path d="M82.8624 62.8394H49.2559V63.28H82.8624V62.8394Z" fill="#A29EB7"/>
<path d="M82.8624 62.3989H49.2559V62.8396H82.8624V62.3989Z" fill="#A19DB7"/>
<path d="M82.8624 61.9634H49.2559V62.404H82.8624V61.9634Z" fill="#A09CB6"/>
<path d="M82.8624 61.5225H49.2559V61.9631H82.8624V61.5225Z" fill="#A09BB5"/>
<path d="M82.8624 61.082H49.2559V61.5227H82.8624V61.082Z" fill="#9F9AB4"/>
<path d="M82.8624 60.6465H49.2559V61.0871H82.8624V60.6465Z" fill="#9E99B4"/>
<path d="M82.8624 60.2061H49.2559V60.6467H82.8624V60.2061Z" fill="#9D98B3"/>
<path d="M82.8624 59.7705H49.2559V60.2111H82.8624V59.7705Z" fill="#9C97B2"/>
<path d="M82.8624 59.3301H49.2559V59.7707H82.8624V59.3301Z" fill="#9B96B2"/>
<path d="M82.8624 58.8892H49.2559V59.3298H82.8624V58.8892Z" fill="#9A95B1"/>
<path d="M82.8624 58.4536H49.2559V58.8942H82.8624V58.4536Z" fill="#9994B0"/>
<path d="M82.8624 58.0132H49.2559V58.4538H82.8624V58.0132Z" fill="#9893AF"/>
<path d="M82.8624 57.5776H49.2559V58.0183H82.8624V57.5776Z" fill="#9792AE"/>
<path d="M82.8624 57.1372H49.2559V57.5778H82.8624V57.1372Z" fill="#9691AE"/>
<path d="M82.8624 56.6963H49.2559V57.1369H82.8624V56.6963Z" fill="#958FAD"/>
<path d="M82.8624 56.2607H49.2559V56.7014H82.8624V56.2607Z" fill="#948EAC"/>
<path d="M82.8624 55.8203H49.2559V56.2609H82.8624V55.8203Z" fill="#938DAB"/>
<path d="M82.8624 55.3848H49.2559V55.8254H82.8624V55.3848Z" fill="#928CAB"/>
<path d="M82.8624 54.9443H49.2559V55.385H82.8624V54.9443Z" fill="#918BAA"/>
<path d="M82.8624 54.5034H49.2559V54.944H82.8624V54.5034Z" fill="#908AA9"/>
<path d="M82.8624 54.0684H49.2559V54.509H82.8624V54.0684Z" fill="#8F89A8"/>
<path d="M82.8624 53.6274H49.2559V54.0681H82.8624V53.6274Z" fill="#8E88A8"/>
<path d="M82.8624 53.1919H49.2559V53.6325H82.8624V53.1919Z" fill="#8D87A7"/>
<path d="M82.8624 52.7515H49.2559V53.1921H82.8624V52.7515Z" fill="#8C86A6"/>
<path d="M82.8624 52.311H49.2559V52.7517H82.8624V52.311Z" fill="#8B85A5"/>
<path d="M82.8624 51.8755H49.2559V52.3161H82.8624V51.8755Z" fill="#8A84A4"/>
<path d="M82.8624 51.4346H49.2559V51.8752H82.8624V51.4346Z" fill="#8983A4"/>
<path d="M82.8624 50.9995H49.2559V51.4401H82.8624V50.9995Z" fill="#8882A3"/>
<path d="M82.8624 50.5586H49.2559V50.9992H82.8624V50.5586Z" fill="#8781A2"/>
<path d="M82.8624 50.1182H49.2559V50.5588H82.8624V50.1182Z" fill="#867FA1"/>
<path d="M82.8624 49.6826H49.2559V50.1232H82.8624V49.6826Z" fill="#857EA0"/>
<path d="M82.8624 49.2422H49.2559V49.6828H82.8624V49.2422Z" fill="#847DA0"/>
<path d="M82.8624 48.8066H49.2559V49.2473H82.8624V48.8066Z" fill="#837C9F"/>
<path d="M82.8624 48.3657H49.2559V48.8064H82.8624V48.3657Z" fill="#827B9E"/>
<path d="M82.8624 47.9253H49.2559V48.3659H82.8624V47.9253Z" fill="#817A9D"/>
<path d="M82.8624 47.4897H49.2559V47.9304H82.8624V47.4897Z" fill="#80799D"/>
<path d="M82.8624 47.0493H49.2559V47.49H82.8624V47.0493Z" fill="#7F789C"/>
<path d="M82.8624 46.6138H49.2559V47.0544H82.8624V46.6138Z" fill="#7E779B"/>
<path d="M82.8624 46.1733H49.2559V46.614H82.8624V46.1733Z" fill="#7D769A"/>
<path d="M82.8624 45.7324H49.2559V46.1731H82.8624V45.7324Z" fill="#7C7499"/>
<path d="M82.8624 45.2969H49.2559V45.7375H82.8624V45.2969Z" fill="#7B7398"/>
<path d="M82.8624 44.8564H49.2559V45.2971H82.8624V44.8564Z" fill="#7A7298"/>
<path d="M82.8624 44.4209H49.2559V44.8615H82.8624V44.4209Z" fill="#797197"/>
<path d="M82.8624 43.9805H49.2559V44.4211H82.8624V43.9805Z" fill="#787096"/>
<path d="M82.8624 43.5396H49.2559V43.9802H82.8624V43.5396Z" fill="#776F95"/>
<path d="M82.8624 43.104H49.2559V43.5446H82.8624V43.104Z" fill="#766E94"/>
<path d="M82.8624 42.6636H49.2559V43.1042H82.8624V42.6636Z" fill="#756D94"/>
<path d="M82.8624 42.228H49.2559V42.6687H82.8624V42.228Z" fill="#746C93"/>
<path d="M82.8624 41.7876H49.2559V42.2282H82.8624V41.7876Z" fill="#736A92"/>
<path d="M82.8624 41.3467H49.2559V41.7873H82.8624V41.3467Z" fill="#726991"/>
<path d="M82.8624 40.9116H49.2559V41.3523H82.8624V40.9116Z" fill="#716890"/>
<path d="M82.8624 40.4707H49.2559V40.9113H82.8624V40.4707Z" fill="#70678F"/>
<path d="M82.8624 40.0352H49.2559V40.4758H82.8624V40.0352Z" fill="#6F668F"/>
<path d="M82.8624 39.5947H49.2559V40.0354H82.8624V39.5947Z" fill="#6E658E"/>
<path d="M82.8624 39.1543H49.2559V39.5949H82.8624V39.1543Z" fill="#6D648D"/>
<path d="M82.8624 38.7188H49.2559V39.1594H82.8624V38.7188Z" fill="#6C628C"/>
<path d="M82.8624 38.2778H49.2559V38.7185H82.8624V38.2778Z" fill="#6A618B"/>
<path d="M82.8624 37.8428H49.2559V38.2834H82.8624V37.8428Z" fill="#69608B"/>
<path d="M82.8624 37.4019H49.2559V37.8425H82.8624V37.4019Z" fill="#685F8A"/>
<path d="M82.8624 36.9614H49.2559V37.4021H82.8624V36.9614Z" fill="#675E89"/>
<path d="M82.8624 36.5259H49.2559V36.9665H82.8624V36.5259Z" fill="#665D88"/>
<path d="M82.8624 36.0854H49.2559V36.5261H82.8624V36.0854Z" fill="#655C87"/>
<path d="M82.8624 35.6499H49.2559V36.0905H82.8624V35.6499Z" fill="#645A86"/>
<path d="M82.8624 35.209H49.2559V35.6496H82.8624V35.209Z" fill="#635985"/>
<path d="M82.8624 34.7686H49.2559V35.2092H82.8624V34.7686Z" fill="#625885"/>
<path d="M82.8624 34.333H49.2559V34.7736H82.8624V34.333Z" fill="#615784"/>
<path d="M82.8624 33.8926H49.2559V34.3332H82.8624V33.8926Z" fill="#605683"/>
<path d="M82.8624 33.457H49.2559V33.8977H82.8624V33.457Z" fill="#5F5582"/>
<path d="M82.8624 33.0161H49.2559V33.4567H82.8624V33.0161Z" fill="#5E5381"/>
<path d="M82.8624 32.5757H49.2559V33.0163H82.8624V32.5757Z" fill="#5D5280"/>
<path d="M82.8624 32.1401H49.2559V32.5808H82.8624V32.1401Z" fill="#5C5180"/>
<path d="M82.8624 31.6997H49.2559V32.1403H82.8624V31.6997Z" fill="#5A507F"/>
<path d="M82.8624 31.2642H49.2559V31.7048H82.8624V31.2642Z" fill="#594F7E"/>
<path d="M82.8624 30.8237H49.2559V31.2644H82.8624V30.8237Z" fill="#584E7D"/>
<path d="M82.8624 30.3828H49.2559V30.8234H82.8624V30.3828Z" fill="#574C7C"/>
<path d="M82.8624 29.9473H49.2559V30.3879H82.8624V29.9473Z" fill="#564B7B"/>
<path d="M82.8624 29.5068H49.2559V29.9475H82.8624V29.5068Z" fill="#554A7A"/>
<path d="M82.8624 29.0713H49.2559V29.5119H82.8624V29.0713Z" fill="#54497A"/>
<path d="M82.8624 28.6309H49.2559V29.0715H82.8624V28.6309Z" fill="#534879"/>
<path d="M82.8624 28.1899H49.2559V28.6306H82.8624V28.1899Z" fill="#524678"/>
<path d="M82.8624 27.7549H49.2559V28.1955H82.8624V27.7549Z" fill="#514577"/>
<path d="M82.8624 27.314H49.2559V27.7546H82.8624V27.314Z" fill="#504476"/>
<path d="M82.8624 26.8784H49.2559V27.319H82.8624V26.8784Z" fill="#4E4375"/>
<path d="M82.8624 26.438H49.2559V26.8786H82.8624V26.438Z" fill="#4D4274"/>
<path d="M82.8624 25.9976H49.2559V26.4382H82.8624V25.9976Z" fill="#4C4073"/>
<path d="M82.8624 25.562H49.2559V26.0026H82.8624V25.562Z" fill="#4B3F73"/>
<path d="M82.8624 25.1211H49.2559V25.5617H82.8624V25.1211Z" fill="#4A3E72"/>
<path d="M82.8624 24.686H49.2559V25.1267H82.8624V24.686Z" fill="#493D71"/>
<path d="M82.8624 24.2451H49.2559V24.6857H82.8624V24.2451Z" fill="#483C70"/>
<path d="M82.8624 23.8047H49.2559V24.2453H82.8624V23.8047Z" fill="#473A6F"/>
<path d="M82.8624 23.3691H49.2559V23.8098H82.8624V23.3691Z" fill="#46396E"/>
<path d="M82.8624 22.9287H49.2559V23.3693H82.8624V22.9287Z" fill="#44386D"/>
<path d="M82.8624 22.4932H49.2559V22.9338H82.8624V22.4932Z" fill="#43376C"/>
<path d="M82.8624 22.0522H49.2559V22.4929H82.8624V22.0522Z" fill="#42366C"/>
<path d="M82.8624 21.6118H49.2559V22.0524H82.8624V21.6118Z" fill="#41346B"/>
<path d="M82.8624 21.1763H49.2559V21.6169H82.8624V21.1763Z" fill="#40336A"/>
<path d="M82.8624 20.7358H49.2559V21.1765H82.8624V20.7358Z" fill="#3F3269"/>
<path d="M82.8624 20.3003H49.2559V20.7409H82.8624V20.3003Z" fill="#3E3168"/>
<path d="M82.8624 19.8594H49.2559V20.3H82.8624V19.8594Z" fill="#3D3067"/>
<path d="M82.8624 19.4189H49.2559V19.8596H82.8624V19.4189Z" fill="#3C2E66"/>
<path d="M82.8624 18.9834H49.2559V19.424H82.8624V18.9834Z" fill="#3A2D65"/>
<path d="M82.8624 18.543H49.2559V18.9836H82.8624V18.543Z" fill="#392C64"/>
<path d="M82.8624 18.1074H49.2559V18.5481H82.8624V18.1074Z" fill="#382B64"/>
<path d="M82.8624 17.667H49.2559V18.1076H82.8624V17.667Z" fill="#372963"/>
<path d="M82.8624 17.2261H49.2559V17.6667H82.8624V17.2261Z" fill="#362862"/>
<path d="M82.8624 16.7905H49.2559V17.2312H82.8624V16.7905Z" fill="#352761"/>
<path d="M82.8624 16.3501H49.2559V16.7907H82.8624V16.3501Z" fill="#342660"/>
<path d="M82.8624 15.9146H49.2559V16.3552H82.8624V15.9146Z" fill="#32245F"/>
<path d="M82.8624 15.4741H49.2559V15.9148H82.8624V15.4741Z" fill="#31235E"/>
<path d="M82.8624 15.0332H49.2559V15.4738H82.8624V15.0332Z" fill="#30225D"/>
<path d="M82.8624 14.5981H49.2559V15.0388H82.8624V14.5981Z" fill="#2F215C"/>
<path d="M82.8624 14.1572H49.2559V14.5979H82.8624V14.1572Z" fill="#2E1F5B"/>
<path d="M82.8624 13.7217H49.2559V14.1623H82.8624V13.7217Z" fill="#2D1E5B"/>
<path d="M82.8624 13.2812H49.2559V13.7219H82.8624V13.2812Z" fill="#2C1D5A"/>
<path d="M82.8624 12.8408H49.2559V13.2815H82.8624V12.8408Z" fill="#2A1C59"/>
<path d="M82.8624 12.4053H49.2559V12.8459H82.8624V12.4053Z" fill="#291B58"/>
<path d="M82.8624 11.9644H49.2559V12.405H82.8624V11.9644Z" fill="#281957"/>
<path d="M82.8624 11.5293H49.2559V11.9699H82.8624V11.5293Z" fill="white"/>
<path d="M82.8624 11.3062H49.2559V11.5291H82.8624V11.3062Z" fill="white"/>
<path d="M75.6306 10.3628H67.9717V19.7819H75.6306V10.3628Z" fill="#E1E2E9"/>
<path d="M64.1472 40.9634H56.4883V50.3825H64.1472V40.9634Z" fill="#E1E2E9"/>
<path d="M75.6306 71.564H67.9717V80.9831H75.6306V71.564Z" fill="#E1E2E9"/>
<path d="M86.1605 0H45.959V113.087H57.4579V101.734H63.21L74.6931 113.087H86.1815L74.6931 101.734H86.1815L86.1605 0ZM63.21 90.2466H57.4421V82.7092H63.21V90.2466ZM63.21 69.8427H57.4421V62.3054H63.21V69.8427ZM63.21 59.6408H57.4421V52.1086H63.21V59.6408ZM63.21 49.4441H57.4421V41.9067H63.21V49.4441ZM63.21 29.0299H57.4421V21.5028H63.21V29.0299ZM63.21 18.8279H57.4421V11.3061H63.21V18.8279ZM74.6931 90.2362H68.9516V82.7092H74.6931V90.2362ZM74.6931 80.0343H68.9516V72.5073H74.6931V80.0343ZM74.6931 69.8324H68.9516V62.3054H74.6931V69.8324ZM74.6931 39.2473H68.9516V31.7048H74.6931V39.2473ZM74.6931 18.8435H68.9516V11.3061H74.6931V18.8435Z" fill="white"/>
</g>
<defs>
<clipPath id="clip0_77_1456">
<rect width="224" height="147" fill="white"/>
</clipPath>
</defs>
</svg>
